{"page":1,"per_page":10,"total":250,"total_pages":25,"data":[{"name":"Afghanistan","nativeName":"افغانستان","topLevelDomain":[".af"],"alpha2Code":"AF","numericCode":"004","alpha3Code":"AFG","currencies":["AFN"],"callingCodes":["93"],"capital":"Kabul","altSpellings":["AF","Afġānistān"],"relevance":"0","region":"Asia","subregion":"Southern Asia","language":["Pashto","Dari"],"languages":["ps","uz","tk"],"translations":{"de":"Afghanistan","es":"Afganistán","fr":"Afghanistan","it":"Afghanistan","ja":"アフガニスタン","nl":"Afghanistan","hr":"Afganistan"},"population":26023100,"latlng":[33,65],"demonym":"Afghan","borders":["IRN","PAK","TKM","UZB","TJK","CHN"],"area":652230,"gini":27.8,"timezones":["UTC+04:30"]},{"name":"Åland Islands","nativeName":"Åland","topLevelDomain":[".ax"],"alpha2Code":"AX","numericCode":"248","alpha3Code":"ALA","currencies":["EUR"],"callingCodes":["358"],"capital":"Mariehamn","altSpellings":["AX","Aaland","Aland","Ahvenanmaa"],"relevance":"0","region":"Europe","subregion":"Northern Europe","language":["Swedish"],"languages":["sv"],"translations":{"de":"Åland","es":"Alandia","fr":"Åland","it":"Isole Aland","ja":"オーランド諸島","nl":"Ålandeilanden","hr":"Ålandski otoci"},"population":28875,"latlng":[60.116667,19.9],"demonym":"Ålandish","borders":[],"area":1580,"timezones":["UTC+02:00"]},{"name":"Albania","nativeName":"Shqipëria","topLevelDomain":[".al"],"alpha2Code":"AL","numericCode":"008","alpha3Code":"ALB","currencies":["ALL"],"callingCodes":["355"],"capital":"Tirana","altSpellings":["AL","Shqipëri","Shqipëria","Shqipnia"],"relevance":"0","region":"Europe","subregion":"Southern Europe","language":["Albanian"],"languages":["sq"],"translations":{"de":"Albanien","es":"Albania","fr":"Albanie","it":"Albania","ja":"アルバニア","nl":"Albanië","hr":"Albanija"},"population":2893005,"latlng":[41,20],"demonym":"Albanian","borders":["MNE","GRC","MKD","KOS"],"area":28748,"gini":34.5,"timezones":["UTC+01:00"]},{"name":"Algeria","nativeName":"الجزائر","topLevelDomain":[".dz"],"alpha2Code":"DZ","numericCode":"012","alpha3Code":"DZA","currencies":["DZD"],"callingCodes":["213"],"capital":"Algiers","altSpellings":["DZ","Dzayer","Algérie"],"relevance":"0","region":"Africa","subregion":"Northern Africa","language":["Arabic"],"languages":["ar"],"translations":{"de":"Algerien","es":"Argelia","fr":"Algérie","it":"Algeria","ja":"アルジェリア","nl":"Algerije","hr":"Alžir"},"population":39500000,"latlng":[28,3],"demonym":"Algerian","borders":["TUN","LBY","NER","ESH","MRT","MLI","MAR"],"area":2381741,"gini":35.3,"timezones":["UTC+01:00"]},{"name":"American Samoa","nativeName":"American Samoa","topLevelDomain":[".as"],"alpha2Code":"AS","numericCode":"016","alpha3Code":"ASM","currencies":["USD"],"callingCodes":["1684"],"capital":"Pago Pago","altSpellings":["AS","Amerika Sāmoa","Amelika Sāmoa","Sāmoa Amelika"],"relevance":"0.5","region":"Oceania","subregion":"Polynesia","language":["English","Samoan"],"languages":["en","sm"],"translations":{"de":"Amerikanisch-Samoa","es":"Samoa Americana","fr":"Samoa américaines","it":"Samoa Americane","ja":"アメリカ領サモア","nl":"Amerikaans Samoa","hr":"Američka Samoa"},"population":55519,"latlng":[-14.33333333,-170],"demonym":"American Samoan","borders":[],"area":199,"timezones":["UTC-11:00"]},{"name":"Andorra","nativeName":"Andorra","topLevelDomain":[".ad"],"alpha2Code":"AD","numericCode":"020","alpha3Code":"AND","currencies":["EUR"],"callingCodes":["376"],"capital":"Andorra la Vella","altSpellings":["AD","Principality of Andorra","Principat d'Andorra"],"relevance":"0.5","region":"Europe","subregion":"Southern Europe","language":["Catalan"],"languages":["ca"],"translations":{"de":"Andorra","es":"Andorra","fr":"Andorre","it":"Andorra","ja":"アンドラ","nl":"Andorra","hr":"Andora"},"population":76949,"latlng":[42.5,1.5],"demonym":"Andorran","borders":["FRA","ESP"],"area":468,"timezones":["UTC+01:00"]},{"name":"Angola","nativeName":"Angola","topLevelDomain":[".ao"],"alpha2Code":"AO","numericCode":"024","alpha3Code":"AGO","currencies":["AOA"],"callingCodes":["244"],"capital":"Luanda","altSpellings":["AO","República de Angola","ʁɛpublika de an'ɡɔla"],"relevance":"0","region":"Africa","subregion":"Middle Africa","language":["Portuguese"],"languages":["pt"],"translations":{"de":"Angola","es":"Angola","fr":"Angola","it":"Angola","ja":"アンゴラ","nl":"Angola","hr":"Angola"},"population":24383301,"latlng":[-12.5,18.5],"demonym":"Angolan","borders":["COG","COD","ZMB","NAM"],"area":1246700,"gini":58.6,"timezones":["UTC+01:00"]},{"name":"Anguilla","nativeName":"Anguilla","topLevelDomain":[".ai"],"alpha2Code":"AI","numericCode":"660","alpha3Code":"AIA","currencies":["XCD"],"callingCodes":["1264"],"capital":"The Valley","altSpellings":["AI"],"relevance":"0.5","region":"Americas","subregion":"Caribbean","language":["English"],"languages":["en"],"translations":{"de":"Anguilla","es":"Anguilla","fr":"Anguilla","it":"Anguilla","ja":"アンギラ","nl":"Anguilla","hr":"Angvila"},"population":13452,"latlng":[18.25,-63.16666666],"demonym":"Anguillian","borders":[],"area":91,"timezones":["UTC-04:00"]},{"name":"Antarctica","nativeName":"Antarctica","topLevelDomain":[".aq"],"alpha2Code":"AQ","alpha3Code":"ATA","numericCode":"010","currencies":["AUD","GBP"],"callingCodes":[],"capital":"","altSpellings":[],"relevance":"0","region":"Polar","subregion":"","language":["English"],"languages":["en"],"translations":{"de":"Antarktika","es":"Antártida","fr":"Antarctique","it":"Antartide","ja":"南極大陸","nl":"Antarctica","hr":"Antarktika"},"population":1000,"latlng":[-74.65,4.48],"demonym":"","borders":[],"area":14000000,"timezones":["UTC-03:00","UTC+03:00","UTC+05:00","UTC+06:00","UTC+07:00","UTC+08:00","UTC+10:00","UTC+12:00"]},{"name":"Antigua and Barbuda","nativeName":"Antigua and Barbuda","topLevelDomain":[".ag"],"alpha2Code":"AG","numericCode":"028","alpha3Code":"ATG","currencies":["XCD"],"callingCodes":["1268"],"capital":"Saint John's","altSpellings":["AG"],"relevance":"0.5","region":"Americas","subregion":"Caribbean","language":["English"],"languages":["en"],"translations":{"de":"Antigua und Barbuda","es":"Antigua y Barbuda","fr":"Antigua-et-Barbuda","it":"Antigua e Barbuda","ja":"アンティグア・バーブーダ","nl":"Antigua en Barbuda","hr":"Antigva i Barbuda"},"population":86295,"latlng":[17.05,-61.8],"demonym":"Antiguan, Barbudan","borders":[],"area":442,"timezones":["UTC-04:00"]}]}